<?xml version="1.0" encoding="utf-8"?>
<!-- Generator: Adobe Illustrator 17.0.0, SVG Export Plug-In . SVG Version: 6.00 Build 0)  -->
<!DOCTYPE svg PUBLIC "-//W3C//DTD SVG 1.1//EN" "http://www.w3.org/Graphics/SVG/1.1/DTD/svg11.dtd">
<svg version="1.1" id="Слой_1" xmlns="http://www.w3.org/2000/svg" xmlns:xlink="http://www.w3.org/1999/xlink" x="0px" y="0px"
	 width="7.758px" height="12.815px" viewBox="0 0 7.758 12.815" enable-background="new 0 0 7.758 12.815" xml:space="preserve">
<g>
	<polygon fill="#4D78B9" points="1.488,0 7.758,6.41 1.422,12.815 0,11.409 4.952,6.402 0.058,1.398 	"/>
</g>
</svg>
