<?xml version="1.0" encoding="utf-8"?>
<!-- Generator: Adobe Illustrator 17.0.0, SVG Export Plug-In . SVG Version: 6.00 Build 0)  -->
<!DOCTYPE svg PUBLIC "-//W3C//DTD SVG 1.1//EN" "http://www.w3.org/Graphics/SVG/1.1/DTD/svg11.dtd">
<svg version="1.1" id="Слой_1" xmlns="http://www.w3.org/2000/svg" xmlns:xlink="http://www.w3.org/1999/xlink" x="0px" y="0px"
	 width="8.405px" height="8.468px" viewBox="0 0 8.405 8.468" enable-background="new 0 0 8.405 8.468" xml:space="preserve">
<g>
	<path fill="#549DCE" d="M3.138,8.468c-0.265,0-0.521-0.106-0.71-0.296L0.29,6.015C-0.099,5.623-0.096,4.99,0.296,4.601
		C0.689,4.212,1.322,4.215,1.71,4.607L2.981,5.89l3.589-5.44c0.304-0.461,0.924-0.588,1.385-0.284
		C8.417,0.469,8.544,1.09,8.24,1.551L3.973,8.019C3.807,8.27,3.536,8.434,3.237,8.463C3.203,8.467,3.171,8.468,3.138,8.468z"/>
</g>
</svg>
