<?xml version="1.0" encoding="utf-8"?>
<!-- Generator: Adobe Illustrator 17.0.0, SVG Export Plug-In . SVG Version: 6.00 Build 0)  -->
<!DOCTYPE svg PUBLIC "-//W3C//DTD SVG 1.1//EN" "http://www.w3.org/Graphics/SVG/1.1/DTD/svg11.dtd">
<svg version="1.1" id="Слой_1" xmlns="http://www.w3.org/2000/svg" xmlns:xlink="http://www.w3.org/1999/xlink" x="0px" y="0px"
	 width="12.022px" height="12.01px" viewBox="0 0 12.022 12.01" enable-background="new 0 0 12.022 12.01" xml:space="preserve">
<path opacity="0.42" fill="#6F99BA" d="M2.646,11.519l3.398-3.398l3.353,3.353c0.623,0.623,1.566,0.692,2.19,0.069
	c0.623-0.624,0.555-1.566-0.069-2.19L8.166,5.999l3.353-3.353c0.624-0.624,0.692-1.567,0.068-2.19
	c-0.623-0.624-1.566-0.555-2.19,0.069L6.044,3.878L2.646,0.479C2.022-0.144,1.034-0.167,0.41,0.456C0.099,0.768,0,1.12,0,1.529
	c0,0.409,0.213,0.76,0.525,1.072l3.398,3.398L0.525,9.398c-0.312,0.312-0.513,0.675-0.513,1.083c0,0.409,0.11,0.772,0.422,1.084
	C1.057,12.188,2.023,12.143,2.646,11.519z"/>
</svg>
