<?xml version="1.0" encoding="utf-8"?>
<!-- Generator: Adobe Illustrator 17.0.0, SVG Export Plug-In . SVG Version: 6.00 Build 0)  -->
<!DOCTYPE svg PUBLIC "-//W3C//DTD SVG 1.1//EN" "http://www.w3.org/Graphics/SVG/1.1/DTD/svg11.dtd">
<svg version="1.1" id="Слой_1" xmlns="http://www.w3.org/2000/svg" xmlns:xlink="http://www.w3.org/1999/xlink" x="0px" y="0px"
	 width="80px" height="65.001px" viewBox="0 0 80 65.001" enable-background="new 0 0 80 65.001" xml:space="preserve">
<g>
	<radialGradient id="SVGID_1_" cx="58.5" cy="-17.9946" r="75.0597" gradientUnits="userSpaceOnUse">
		<stop  offset="0" style="stop-color:#8AA8D5"/>
		<stop  offset="1" style="stop-color:#5784C3"/>
	</radialGradient>
	<path fill="url(#SVGID_1_)" d="M0,60.001c0,2.75,2.25,5,5,5h70c2.75,0,5-2.25,5-5V13.229c0-2.75-2.25-5-5-5H35.4
		c-2.75,0-5.46-1.851-6.023-4.114C28.815,1.851,26.104,0,23.354,0H5C2.25,0,0,2.25,0,5V60.001z"/>
</g>
</svg>
