<?xml version="1.0" encoding="utf-8"?>
<!-- Generator: Adobe Illustrator 17.0.0, SVG Export Plug-In . SVG Version: 6.00 Build 0)  -->
<!DOCTYPE svg PUBLIC "-//W3C//DTD SVG 1.1//EN" "http://www.w3.org/Graphics/SVG/1.1/DTD/svg11.dtd">
<svg version="1.1" id="Слой_1" xmlns="http://www.w3.org/2000/svg" xmlns:xlink="http://www.w3.org/1999/xlink" x="0px" y="0px"
	 width="15px" height="12px" viewBox="0 0 15 12" enable-background="new 0 0 15 12" xml:space="preserve">
<image overflow="visible" width="15" height="12" xlink:href="data:image/png;base64,iVBORw0KGgoAAAANSUhEUgAAAA8AAAAMCAYAAAC9QufkAAAAGXRFWHRTb2Z0d2FyZQBBZG9iZSBJ
bWFnZVJlYWR5ccllPAAAAKRJREFUeNpiYKAAMBJSkF8zOwFIKaCLT2xJbWAhwoILQNwPxAJo4g1M
hHQCbQBpLkQTPgAimKBOmw91HjZnG0BtxgBMQEmQBEgjhgFQjfuRnAxyxQe4ZiC+iKQebgAOjY5Q
/AEe2lAN85EMaQQJo2sE+v8DVL0AiM2IFiXzcYQ2XCPOeMZiAE6NIMCMzDl5aPMFCzs/UBhIAPEG
IE7EpZFiABBgADycQGD+9SPNAAAAAElFTkSuQmCC">
</image>
</svg>
