<?xml version="1.0" encoding="utf-8"?>
<!-- Generator: Adobe Illustrator 17.0.0, SVG Export Plug-In . SVG Version: 6.00 Build 0)  -->
<!DOCTYPE svg PUBLIC "-//W3C//DTD SVG 1.1//EN" "http://www.w3.org/Graphics/SVG/1.1/DTD/svg11.dtd">
<svg version="1.1" id="Слой_1" xmlns="http://www.w3.org/2000/svg" xmlns:xlink="http://www.w3.org/1999/xlink" x="0px" y="0px"
	 width="12.021px" height="14.707px" viewBox="0 0 12.021 14.707" enable-background="new 0 0 12.021 14.707" xml:space="preserve">
<g opacity="0.4">
	<line fill="none" stroke="#FFFFFF" stroke-miterlimit="10" x1="5.854" y1="14.707" x2="5.854" y2="0.707"/>
	<polyline fill="none" stroke="#FFFFFF" stroke-miterlimit="10" points="11.667,6.364 6.01,0.707 0.354,6.364 	"/>
</g>
</svg>
