<?xml version="1.0" encoding="utf-8"?>
<!-- Generator: Adobe Illustrator 17.0.0, SVG Export Plug-In . SVG Version: 6.00 Build 0)  -->
<!DOCTYPE svg PUBLIC "-//W3C//DTD SVG 1.1//EN" "http://www.w3.org/Graphics/SVG/1.1/DTD/svg11.dtd">
<svg version="1.1" id="Слой_1" xmlns="http://www.w3.org/2000/svg" xmlns:xlink="http://www.w3.org/1999/xlink" x="0px" y="0px"
	 width="12px" height="7px" viewBox="0 0 12 7" enable-background="new 0 0 12 7" xml:space="preserve">
<image overflow="visible" width="12" height="7" xlink:href="data:image/png;base64,iVBORw0KGgoAAAANSUhEUgAAAAwAAAAHCAYAAAA8sqwkAAAAGXRFWHRTb2Z0d2FyZQBBZG9iZSBJ
bWFnZVJlYWR5ccllPAAAAFNJREFUeNpi+P//f8F/CChgwAGAcgJAfB6I34M4Af8RYD4exf/BGqCC
Cdg0AdkGIEUwxSA+sknImtYDsQNOxTg0/cerGIcm/IrRNIGcpYAuBxBgAOdvrJb/e0w+AAAAAElF
TkSuQmCC">
</image>
</svg>
